%YAML 1.1
%TAG !u! tag:unity3d.com,2011:
--- !u!114 &11400000
MonoBehaviour:
  m_ObjectHideFlags: 0
  m_PrefabParentObject: {fileID: 0}
  m_PrefabInternal: {fileID: 0}
  m_GameObject: {fileID: 0}
  m_Enabled: 1
  m_EditorHideFlags: 0
  m_Script: {fileID: -1273847869, guid: 2f23e334b99c8594bb7a37807915ea35, type: 3}
  m_Name: Toggle
  m_EditorClassIdentifier: 
  kind: 1
  systemKind: 0
  icon: {fileID: 0}
  unityIcon: 69636f6e732f67656e6572617465642f756e697479656e67696e652f75692f746f67676c652069636f6e2e6173736574
  parameter: 47616d654f626a6563742f55492f546f67676c65
  script: {fileID: 0}
