%YAML 1.1
%TAG !u! tag:unity3d.com,2011:
--- !u!114 &11400000
MonoBehaviour:
  m_ObjectHideFlags: 0
  m_PrefabParentObject: {fileID: 0}
  m_PrefabInternal: {fileID: 0}
  m_GameObject: {fileID: 0}
  m_Enabled: 1
  m_EditorHideFlags: 0
  m_Script: {fileID: 11500000, guid: 0c1a8539700da4b28ac7d28919fd7575, type: 3}
  m_Name: PotsDatabase
  m_EditorClassIdentifier: 
  DatabaseId: PotsDatabase
  interfaceObjects:
  - {fileID: 11400000, guid: 7d1f7ee163a6547ab84360922c63e581, type: 2}
  - {fileID: 11400000, guid: 45d7b745358414402a2b50946843c5b0, type: 2}
  - {fileID: 11400000, guid: 6aeab75b4311f4632a277960d25d739c, type: 2}
