%YAML 1.1
%TAG !u! tag:unity3d.com,2011:
--- !u!114 &11400000
MonoBehaviour:
  m_ObjectHideFlags: 0
  m_PrefabParentObject: {fileID: 0}
  m_PrefabInternal: {fileID: 0}
  m_GameObject: {fileID: 0}
  m_Enabled: 1
  m_EditorHideFlags: 0
  m_Script: {fileID: 11500000, guid: 16cc168ce478d4bc18a50f1e3853b672, type: 3}
  m_Name: Character.One
  m_EditorClassIdentifier: 
  enabled: 1
  displayName: Green
  displayGraphic: {fileID: 21300142, guid: 9a77cffa59e06432c9afedf5d36bff3f, type: 3}
  description: 
  characterType: 0
  panel: {fileID: 21300148, guid: 9a77cffa59e06432c9afedf5d36bff3f, type: 3}
