%YAML 1.1
%TAG !u! tag:unity3d.com,2011:
--- !u!114 &11400000
MonoBehaviour:
  m_ObjectHideFlags: 0
  m_PrefabParentObject: {fileID: 0}
  m_PrefabInternal: {fileID: 0}
  m_GameObject: {fileID: 0}
  m_Enabled: 1
  m_EditorHideFlags: 0
  m_Script: {fileID: -1273847869, guid: 2f23e334b99c8594bb7a37807915ea35, type: 3}
  m_Name: LowPassFilter
  m_EditorClassIdentifier: 
  kind: 2
  systemKind: 0
  icon: {fileID: 0}
  unityIcon: 69636f6e732f67656e6572617465642f6c6f777061737366696c7465722069636f6e2e6173736574
  parameter: 417564696f4c6f775061737346696c746572
  script: {fileID: 1102040991, guid: e284ddc3702262a4fba711c0e0872222, type: 3}
