%YAML 1.1
%TAG !u! tag:unity3d.com,2011:
--- !u!114 &11400000
MonoBehaviour:
  m_ObjectHideFlags: 0
  m_PrefabParentObject: {fileID: 0}
  m_PrefabInternal: {fileID: 0}
  m_GameObject: {fileID: 0}
  m_Enabled: 1
  m_EditorHideFlags: 0
  m_Script: {fileID: -1273847869, guid: 2f23e334b99c8594bb7a37807915ea35, type: 3}
  m_Name: EdgeCollider2D
  m_EditorClassIdentifier: 
  kind: 2
  systemKind: 0
  icon: {fileID: 0}
  unityIcon: 69636f6e732f67656e6572617465642f65646765636f6c6c6964657232642069636f6e2e6173736574
  parameter: 45646765436f6c6c696465723244
  script: {fileID: 0}
