%YAML 1.1
%TAG !u! tag:unity3d.com,2011:
--- !u!114 &11400000
MonoBehaviour:
  m_ObjectHideFlags: 0
  m_PrefabParentObject: {fileID: 0}
  m_PrefabInternal: {fileID: 0}
  m_GameObject: {fileID: 0}
  m_Enabled: 1
  m_EditorHideFlags: 0
  m_Script: {fileID: 575807087, guid: 15e4284710b6fec45b46e734cb9a9a35, type: 3}
  m_Name: Famine_Tileset
  m_EditorClassIdentifier: 
  disableImmediatePreview: 0
  customPreviewImage: {fileID: 0}
  customPreviewDesignTime: 1
  _static: 1
  _smooth: 0
  visibility: 1
  group: 0
  overrideLayer: 0
  layer: 0
  overrideTag: 0
  tag: Untagged
  _categoryId: 0
  forceLegacySideways: 0
  overrideTransforms: 0
  scaleMode: 0
  applyPrefabTransform: 0
  transformScale: {x: 1, y: 1, z: 1}
  _userFlags: 0
  _userFlagLabels: 
  _defaultOrientationMask: 0
  _fallbackMode: 0
  forceOverrideFlags: 0
  _orientations:
  - mask: 0
    _type: 0
    _rotation: 0
    _variations:
    - {fileID: 121262, guid: 65f3273e4fac2d54f98d1ef169145819, type: 2}
    _variationWeights: 32000000
  - mask: 64
    _type: 0
    _rotation: 0
    _variations:
    - {fileID: 163378, guid: c57eb43f452ca3d4894d699bcb3caf58, type: 2}
    _variationWeights: 32000000
  - mask: 16
    _type: 0
    _rotation: 0
    _variations:
    - {fileID: 180548, guid: 4f11bf2583392fa499d14f5bc6847f6b, type: 2}
    _variationWeights: 32000000
  - mask: 8
    _type: 0
    _rotation: 0
    _variations:
    - {fileID: 130452, guid: 4eb472ee128bae74fbbf3ccdaa937c19, type: 2}
    _variationWeights: 32000000
  - mask: 2
    _type: 0
    _rotation: 0
    _variations:
    - {fileID: 167150, guid: b7d5ecd306edca546bea6c241fda6cca, type: 2}
    _variationWeights: 32000000
  - mask: 66
    _type: 0
    _rotation: 0
    _variations:
    - {fileID: 198362, guid: e7fa788efe34a2f419e0a16854fe7b72, type: 2}
    _variationWeights: 32000000
  - mask: 24
    _type: 0
    _rotation: 0
    _variations:
    - {fileID: 150984, guid: 2fe6b8443dc985c43ac0d22103ed5971, type: 2}
    _variationWeights: 32000000
  - mask: 80
    _type: 0
    _rotation: 0
    _variations:
    - {fileID: 162914, guid: ae0e51cad84fc094e89a463ae831ab02, type: 2}
    _variationWeights: 32000000
  - mask: 72
    _type: 0
    _rotation: 0
    _variations:
    - {fileID: 101796, guid: c2671d6611298ab4bbdeb035050f90cb, type: 2}
    _variationWeights: 32000000
  - mask: 18
    _type: 0
    _rotation: 0
    _variations:
    - {fileID: 194512, guid: e6e177f99f1edd748912140065c2da42, type: 2}
    _variationWeights: 32000000
  - mask: 10
    _type: 0
    _rotation: 0
    _variations:
    - {fileID: 119084, guid: 6ba775a61d71e404eaf7f6211278594e, type: 2}
    _variationWeights: 32000000
  - mask: 88
    _type: 0
    _rotation: 0
    _variations:
    - {fileID: 177298, guid: 3a46386e35d742b4a8c44dcaf2bdd34f, type: 2}
    _variationWeights: 32000000
  - mask: 82
    _type: 0
    _rotation: 0
    _variations:
    - {fileID: 199822, guid: 997002c27a7f29a40a266cd747b57573, type: 2}
    _variationWeights: 32000000
  - mask: 74
    _type: 0
    _rotation: 0
    _variations:
    - {fileID: 161682, guid: c25d25b4fc5440b49892de4b30447a39, type: 2}
    _variationWeights: 32000000
  - mask: 26
    _type: 0
    _rotation: 0
    _variations:
    - {fileID: 132170, guid: 28d6936c47be0f748a9655ecaa5dde90, type: 2}
    _variationWeights: 32000000
  - mask: 90
    _type: 0
    _rotation: 0
    _variations:
    - {fileID: 163808, guid: 1618585c5795c654995ae2f8fbc2053b, type: 2}
    _variationWeights: 32000000
  - mask: 120
    _type: 0
    _rotation: 0
    _variations:
    - {fileID: 154538, guid: db2e5dd9407761343b1237134eb6796b, type: 2}
    _variationWeights: 32000000
  - mask: 75
    _type: 0
    _rotation: 0
    _variations:
    - {fileID: 188150, guid: 8d923dc1c44d94e44af2af4a70161832, type: 2}
    _variationWeights: 32000000
  - mask: 30
    _type: 0
    _rotation: 0
    _variations:
    - {fileID: 107564, guid: 8049ee018ca222b40a064dfc3c5fe82f, type: 2}
    _variationWeights: 32000000
  - mask: 208
    _type: 0
    _rotation: 0
    _variations:
    - {fileID: 106796, guid: c024941b125283a48a0c08f1307f331e, type: 2}
    _variationWeights: 32000000
  - mask: 104
    _type: 0
    _rotation: 0
    _variations:
    - {fileID: 136228, guid: 1ca19265be0a0a947b3a892ba6449e05, type: 2}
    _variationWeights: 32000000
  - mask: 22
    _type: 0
    _rotation: 0
    _variations:
    - {fileID: 137714, guid: 194d1a30e96920e41ac9289b3bead4a5, type: 2}
    _variationWeights: 32000000
  - mask: 11
    _type: 0
    _rotation: 0
    _variations:
    - {fileID: 118358, guid: a081130a303e1124889b2caafcc63efb, type: 2}
    _variationWeights: 32000000
  - mask: 216
    _type: 0
    _rotation: 0
    _variations:
    - {fileID: 195204, guid: a11c41ff3c5502f4197cae509992af41, type: 2}
    _variationWeights: 32000000
  - mask: 106
    _type: 0
    _rotation: 0
    _variations:
    - {fileID: 166314, guid: 37b435bae070c86439b327cfb4ad39b6, type: 2}
    _variationWeights: 32000000
  - mask: 27
    _type: 0
    _rotation: 0
    _variations:
    - {fileID: 140120, guid: 246882cafec28ef4f96221ca14d99975, type: 2}
    _variationWeights: 32000000
  - mask: 218
    _type: 0
    _rotation: 0
    _variations:
    - {fileID: 162426, guid: 14b00a35649e3d24589e397e164ed68b, type: 2}
    _variationWeights: 32000000
  - mask: 122
    _type: 0
    _rotation: 0
    _variations:
    - {fileID: 145866, guid: 63b34fd4a1f2e404688d13c95edda176, type: 2}
    _variationWeights: 32000000
  - mask: 94
    _type: 0
    _rotation: 0
    _variations:
    - {fileID: 158018, guid: ce987d0a8ef91954593d5283aff4e282, type: 2}
    _variationWeights: 32000000
  - mask: 91
    _type: 0
    _rotation: 0
    _variations:
    - {fileID: 120516, guid: d57096cebc5fcd74b8e8fa4704b6ead3, type: 2}
    _variationWeights: 32000000
  - mask: 219
    _type: 0
    _rotation: 0
    _variations:
    - {fileID: 152028, guid: 9777e6d29c215c2458ca522dc50875e1, type: 2}
    _variationWeights: 32000000
  - mask: 126
    _type: 0
    _rotation: 0
    _variations:
    - {fileID: 117140, guid: a973d2d9a3164ef448e24973396202e3, type: 2}
    _variationWeights: 32000000
  - mask: 248
    _type: 0
    _rotation: 0
    _variations:
    - {fileID: 113740, guid: 1d10c88c98927fb438356e191033ff68, type: 2}
    _variationWeights: 32000000
  - mask: 214
    _type: 0
    _rotation: 0
    _variations:
    - {fileID: 187442, guid: 012cded301a8c1545b0dd61e7e297801, type: 2}
    _variationWeights: 32000000
  - mask: 107
    _type: 0
    _rotation: 0
    _variations:
    - {fileID: 157456, guid: 6ffabb0787cbfbc49853520e0b5f093e, type: 2}
    _variationWeights: 32000000
  - mask: 31
    _type: 0
    _rotation: 0
    _variations:
    - {fileID: 191208, guid: 236954d6a0b21734986cf940dfedb822, type: 2}
    _variationWeights: 32000000
  - mask: 250
    _type: 0
    _rotation: 0
    _variations:
    - {fileID: 162050, guid: 3f13a01d3ff6b7242818c83b34dc0e44, type: 2}
    _variationWeights: 32000000
  - mask: 222
    _type: 0
    _rotation: 0
    _variations:
    - {fileID: 164174, guid: 2de3ad834cfd57f40abf97da56479945, type: 2}
    _variationWeights: 32000000
  - mask: 123
    _type: 0
    _rotation: 0
    _variations:
    - {fileID: 162404, guid: 23ca47f4064ef39449dd89ff4bc2b13d, type: 2}
    _variationWeights: 32000000
  - mask: 95
    _type: 0
    _rotation: 0
    _variations:
    - {fileID: 174936, guid: d3a0a4dc693e17540a582bb55c803409, type: 2}
    _variationWeights: 32000000
  - mask: 254
    _type: 0
    _rotation: 0
    _variations:
    - {fileID: 108836, guid: 5c0707bb06716b242ae07cd44db07d68, type: 2}
    _variationWeights: 32000000
  - mask: 251
    _type: 0
    _rotation: 0
    _variations:
    - {fileID: 154278, guid: a18388dd16c044b4bbc0a9a34efd3487, type: 2}
    _variationWeights: 32000000
  - mask: 223
    _type: 0
    _rotation: 0
    _variations:
    - {fileID: 188248, guid: 28d6e1e3bb03f984096e291eab500f72, type: 2}
    _variationWeights: 32000000
  - mask: 127
    _type: 0
    _rotation: 0
    _variations:
    - {fileID: 102770, guid: 567c2631fc473c845872c3a05a33e165, type: 2}
    _variationWeights: 32000000
  - mask: 255
    _type: 0
    _rotation: 0
    _variations:
    - {fileID: 135738, guid: a3bc6b1ad28288b4aa5f6f3baf0565da, type: 2}
    _variationWeights: 32000000
  _materialMappingFrom: []
  _materialMappingTo: []
  _coalesce: 1
  _coalesceWithRotated: 0
  _coalesceWithBorder: 0
  _coalesceBrushGroup: 0
  _coalesceWithBrushGroups: 
